module gitlab.com/binus-student-project-showcase/svc-project

go 1.18

require (
	github.com/Pallinder/go-randomdata v1.2.0
	github.com/go-playground/validator/v10 v10.11.1
	github.com/go-sql-driver/mysql v1.6.0
	github.com/gofiber/fiber/v2 v2.38.1
	github.com/stretchr/testify v1.8.0
)

require (
	github.com/andybalholm/brotli v1.0.4 // indirect
	github.com/davecgh/go-spew v1.1.1 // indirect
	github.com/go-playground/locales v0.14.0 // indirect
	github.com/go-playground/universal-translator v0.18.0 // indirect
	github.com/klauspost/compress v1.15.0 // indirect
	github.com/leodido/go-urn v1.2.1 // indirect
	github.com/pmezard/go-difflib v1.0.0 // indirect
	github.com/stretchr/objx v0.4.0 // indirect
	github.com/valyala/bytebufferpool v1.0.0 // indirect
	github.com/valyala/fasthttp v1.40.0 // indirect
	github.com/valyala/tcplisten v1.0.0 // indirect
	golang.org/x/crypto v0.0.0-20220214200702-86341886e292 // indirect
	golang.org/x/sys v0.0.0-20220227234510-4e6760a101f9 // indirect
	golang.org/x/text v0.3.7 // indirect
	gopkg.in/yaml.v3 v3.0.1 // indirect
)
